9350;30;400;2835;0.0100000000
9351;30;400;3273;0.0300000000
9352;30;400;3423;0.0100000000
9353;30;400;3908;0.0100000000
9354;30;400;3711;0.0100000000
9355;30;400;3889;0.0200000000
9356;30;400;3721;0.0100000000
9357;30;400;3631;0.0100000000
9358;30;400;3661;0.0100000000
9359;30;400;3683;0.0100000000
9360;30;400;3182;0.0300000000
9361;30;400;3950;0.0100000000
9362;30;400;3054;0.0200000000
9363;30;400;3255;0.0200000000
9364;30;400;2926;0.0200000000
9365;30;400;3414;0.0300000000
9366;30;400;3402;0.0100000000
9367;30;400;3466;0.0200000000
9368;30;400;3247;0.0200000000
9369;30;400;4382;0.0200000000
9370;30;400;3904;0.0200000000
9371;30;400;3662;0.0100000000
9372;30;400;3709;0.0100000000
9373;30;400;3330;0.0100000000
9374;30;400;3295;0.0300000000
9375;30;400;3372;0.0200000000
9376;30;400;3705;0.0100000000
9377;30;400;3514;0.0100000000
9378;30;400;3586;0.0100000000
9379;30;400;3399;0.0300000000
9380;30;400;399;0.0200000000
9381;30;400;3597;0.0150000000
9382;30;400;3835;0.0100000000
9383;30;400;3501;0.0100000000
9384;30;400;4052;0.0100000000
9385;30;400;3897;0.0100000000
9386;30;400;3559;0.0100000000
9387;30;400;3896;0.0200000000
9388;30;400;3507;0.0100000000
9389;30;400;3110;0.0200000000
9390;30;400;3441;0.0200000000
9391;30;400;3287;0.0200000000
9392;30;400;3264;0.0200000000
9393;30;400;3192;0.0200000000
9394;30;400;3519;0.0200000000
9395;30;400;3382;0.0200000000
9396;30;400;3947;0.0100000000
9397;30;400;3348;0.0200000000
9398;30;400;3473;0.0100000000
9399;30;400;3682;0.0200000000
